{"count":37,"next":"https://swapi.dev/api/species/?page=3&format=json","previous":"https://swapi.dev/api/species/?page=1&format=json","results":[{"name":"Neimodian","classification":"unknown","designation":"sentient","average_height":"180","skin_colors":"grey, green","hair_colors":"none","eye_colors":"red, pink","average_lifespan":"unknown","homeworld":"https://swapi.dev/api/planets/18/","language":"Neimoidia","people":["https://swapi.dev/api/people/33/"],"films":["https://swapi.dev/api/films/4/"],"created":"2014-12-19T17:07:31.319000Z","edited":"2014-12-20T21:36:42.160000Z","url":"https://swapi.dev/api/species/11/"},{"name":"Gungan","classification":"amphibian","designation":"sentient","average_height":"190","skin_colors":"brown, green","hair_colors":"none","eye_colors":"orange","average_lifespan":"unknown","homeworld":"https://swapi.dev/api/planets/8/","language":"Gungan basic","people":["https://swapi.dev/api/people/36/","https://swapi.dev/api/people/37/","https://swapi.dev/api/people/38/"],"films":["https://swapi.dev/api/films/4/","https://swapi.dev/api/films/5/"],"created":"2014-12-19T17:30:37.341000Z","edited":"2014-12-20T21:36:42.163000Z","url":"https://swapi.dev/api/species/12/"},{"name":"Toydarian","classification":"mammal","designation":"sentient","average_height":"120","skin_colors":"blue, green, grey","hair_colors":"none","eye_colors":"yellow","average_lifespan":"91","homeworld":"https://swapi.dev/api/planets/34/","language":"Toydarian","people":["https://swapi.dev/api/people/40/"],"films":["https://swapi.dev/api/films/4/","https://swapi.dev/api/films/5/"],"created":"2014-12-19T17:48:56.893000Z","edited":"2014-12-20T21:36:42.165000Z","url":"https://swapi.dev/api/species/13/"},{"name":"Dug","classification":"mammal","designation":"sentient","average_height":"100","skin_colors":"brown, purple, grey, red","hair_colors":"none","eye_colors":"yellow, blue","average_lifespan":"unknown","homeworld":"https://swapi.dev/api/planets/35/","language":"Dugese","people":["https://swapi.dev/api/people/41/"],"films":["https://swapi.dev/api/films/4/"],"created":"2014-12-19T17:53:11.214000Z","edited":"2014-12-20T21:36:42.167000Z","url":"https://swapi.dev/api/species/14/"},{"name":"Twi'lek","classification":"mammals","designation":"sentient","average_height":"200","skin_colors":"orange, yellow, blue, green, pink, purple, tan","hair_colors":"none","eye_colors":"blue, brown, orange, pink","average_lifespan":"unknown","homeworld":"https://swapi.dev/api/planets/37/","language":"Twi'leki","people":["https://swapi.dev/api/people/45/","https://swapi.dev/api/people/46/"],"films":["https://swapi.dev/api/films/3/","https://swapi.dev/api/films/4/","https://swapi.dev/api/films/5/","https://swapi.dev/api/films/6/"],"created":"2014-12-20T09:48:02.406000Z","edited":"2014-12-20T21:36:42.169000Z","url":"https://swapi.dev/api/species/15/"},{"name":"Aleena","classification":"reptile","designation":"sentient","average_height":"80","skin_colors":"blue, gray","hair_colors":"none","eye_colors":"unknown","average_lifespan":"79","homeworld":"https://swapi.dev/api/planets/38/","language":"Aleena","people":["https://swapi.dev/api/people/47/"],"films":["https://swapi.dev/api/films/4/"],"created":"2014-12-20T09:53:16.481000Z","edited":"2014-12-20T21:36:42.171000Z","url":"https://swapi.dev/api/species/16/"},{"name":"Vulptereen","classification":"unknown","designation":"sentient","average_height":"100","skin_colors":"grey","hair_colors":"none","eye_colors":"yellow","average_lifespan":"unknown","homeworld":"https://swapi.dev/api/planets/39/","language":"vulpterish","people":["https://swapi.dev/api/people/48/"],"films":["https://swapi.dev/api/films/4/"],"created":"2014-12-20T09:57:33.128000Z","edited":"2014-12-20T21:36:42.173000Z","url":"https://swapi.dev/api/species/17/"},{"name":"Xexto","classification":"unknown","designation":"sentient","average_height":"125","skin_colors":"grey, yellow, purple","hair_colors":"none","eye_colors":"black","average_lifespan":"unknown","homeworld":"https://swapi.dev/api/planets/40/","language":"Xextese","people":["https://swapi.dev/api/people/49/"],"films":["https://swapi.dev/api/films/4/"],"created":"2014-12-20T10:02:13.915000Z","edited":"2014-12-20T21:36:42.175000Z","url":"https://swapi.dev/api/species/18/"},{"name":"Toong","classification":"unknown","designation":"sentient","average_height":"200","skin_colors":"grey, green, yellow","hair_colors":"none","eye_colors":"orange","average_lifespan":"unknown","homeworld":"https://swapi.dev/api/planets/41/","language":"Tundan","people":["https://swapi.dev/api/people/50/"],"films":["https://swapi.dev/api/films/4/","https://swapi.dev/api/films/6/"],"created":"2014-12-20T10:08:36.795000Z","edited":"2014-12-20T21:36:42.177000Z","url":"https://swapi.dev/api/species/19/"},{"name":"Cerean","classification":"mammal","designation":"sentient","average_height":"200","skin_colors":"pale pink","hair_colors":"red, blond, black, white","eye_colors":"hazel","average_lifespan":"unknown","homeworld":"https://swapi.dev/api/planets/43/","language":"Cerean","people":["https://swapi.dev/api/people/52/"],"films":["https://swapi.dev/api/films/4/","https://swapi.dev/api/films/6/"],"created":"2014-12-20T10:15:33.765000Z","edited":"2014-12-20T21:36:42.179000Z","url":"https://swapi.dev/api/species/20/"}]}
