{"count":37,"next":"https://swapi.dev/api/species/?page=4&format=json","previous":"https://swapi.dev/api/species/?page=2&format=json","results":[{"name":"Nautolan","classification":"amphibian","designation":"sentient","average_height":"180","skin_colors":"green, blue, brown, red","hair_colors":"none","eye_colors":"black","average_lifespan":"70","homeworld":"https://swapi.dev/api/planets/44/","language":"Nautila","people":["https://swapi.dev/api/people/53/"],"films":["https://swapi.dev/api/films/4/"],"created":"2014-12-20T10:18:58.610000Z","edited":"2014-12-20T21:36:42.181000Z","url":"https://swapi.dev/api/species/21/"},{"name":"Zabrak","classification":"mammal","designation":"sentient","average_height":"180","skin_colors":"pale, brown, red, orange, yellow","hair_colors":"black","eye_colors":"brown, orange","average_lifespan":"unknown","homeworld":"https://swapi.dev/api/planets/45/","language":"Zabraki","people":["https://swapi.dev/api/people/44/","https://swapi.dev/api/people/54/"],"films":["https://swapi.dev/api/films/4/"],"created":"2014-12-20T10:26:59.894000Z","edited":"2014-12-20T21:36:42.183000Z","url":"https://swapi.dev/api/species/22/"},{"name":"Tholothian","classification":"mammal","designation":"sentient","average_height":"unknown","skin_colors":"dark","hair_colors":"unknown","eye_colors":"blue, indigo","average_lifespan":"unknown","homeworld":"https://swapi.dev/api/planets/46/","language":"unknown","people":["https://swapi.dev/api/people/55/"],"films":["https://swapi.dev/api/films/4/","https://swapi.dev/api/films/6/"],"created":"2014-12-20T10:29:13.798000Z","edited":"2014-12-20T21:36:42.186000Z","url":"https://swapi.dev/api/species/23/"},{"name":"Iktotchi","classification":"unknown","designation":"sentient","average_height":"180","skin_colors":"pink","hair_colors":"none","eye_colors":"orange","average_lifespan":"unknown","homeworld":"https://swapi.dev/api/planets/47/","language":"Iktotchese","people":["https://swapi.dev/api/people/56/"],"films":["https://swapi.dev/api/films/4/","https://swapi.dev/api/films/6/"],"created":"2014-12-20T10:32:13.046000Z","edited":"2014-12-20T21:36:42.188000Z","url":"https://swapi.dev/api/species/24/"},{"name":"Quermian","classification":"mammal","designation":"sentient","average_height":"240","skin_colors":"white","hair_colors":"none","eye_colors":"yellow","average_lifespan":"86","homeworld":"https://swapi.dev/api/planets/48/","language":"Quermian","people":["https://swapi.dev/api/people/57/"],"films":["https://swapi.dev/api/films/4/","https://swapi.dev/api/films/6/"],"created":"2014-12-20T10:34:50.827000Z","edited":"2014-12-20T21:36:42.189000Z","url":"https://swapi.dev/api/species/25/"},{"name":"Kel Dor","classification":"unknown","designation":"sentient","average_height":"180","skin_colors":"peach, orange, red","hair_colors":"none","eye_colors":"black, silver","average_lifespan":"70","homeworld":"https://swapi.dev/api/planets/49/","language":"Kel Dor","people":["https://swapi.dev/api/people/58/"],"films":["https://swapi.dev/api/films/4/","https://swapi.dev/api/films/6/"],"created":"2014-12-20T10:49:21.692000Z","edited":"2014-12-20T21:36:42.191000Z","url":"https://swapi.dev/api/species/26/"},{"name":"Chagrian","classification":"amphibian","designation":"sentient","average_height":"190","skin_colors":"blue","hair_colors":"none","eye_colors":"blue","average_lifespan":"unknown","homeworld":"https://swapi.dev/api/planets/50/","language":"Chagria","people":["https://swapi.dev/api/people/59/"],"films":["https://swapi.dev/api/films/4/","https://swapi.dev/api/films/6/"],"created":"2014-12-20T10:53:28.795000Z","edited":"2014-12-20T21:36:42.193000Z","url":"https://swapi.dev/api/species/27/"},{"name":"Geonosian","classification":"insectoid","designation":"sentient","average_height":"178","skin_colors":"green, brown","hair_colors":"none","eye_colors":"green, hazel","average_lifespan":"unknown","homeworld":"https://swapi.dev/api/planets/11/","language":"Geonosian","people":["https://swapi.dev/api/people/63/"],"films":["https://swapi.dev/api/films/5/","https://swapi.dev/api/films/6/"],"created":"2014-12-20T16:40:45.618000Z","edited":"2014-12-20T21:36:42.195000Z","url":"https://swapi.dev/api/species/28/"},{"name":"Mirialan","classification":"mammal","designation":"sentient","average_height":"180","skin_colors":"yellow, green","hair_colors":"black, brown","eye_colors":"blue, green, red, yellow, brown, orange","average_lifespan":"unknown","homeworld":"https://swapi.dev/api/planets/51/","language":"Mirialan","people":["https://swapi.dev/api/people/64/","https://swapi.dev/api/people/65/"],"films":["https://swapi.dev/api/films/5/","https://swapi.dev/api/films/6/"],"created":"2014-12-20T16:46:48.290000Z","edited":"2014-12-20T21:36:42.197000Z","url":"https://swapi.dev/api/species/29/"},{"name":"Clawdite","classification":"reptilian","designation":"sentient","average_height":"180","skin_colors":"green, yellow","hair_colors":"none","eye_colors":"yellow","average_lifespan":"70","homeworld":"https://swapi.dev/api/planets/54/","language":"Clawdite","people":["https://swapi.dev/api/people/70/"],"films":["https://swapi.dev/api/films/5/","https://swapi.dev/api/films/6/"],"created":"2014-12-20T16:57:46.171000Z","edited":"2014-12-20T21:36:42.199000Z","url":"https://swapi.dev/api/species/30/"}]}
