{"count":39,"next":"https://swapi.dev/api/vehicles/?page=4&format=json","previous":"https://swapi.dev/api/vehicles/?page=2&format=json","results":[{"name":"Zephyr-G swoop bike","model":"Zephyr-G swoop bike","manufacturer":"Mobquet Swoops and Speeders","cost_in_credits":"5750","length":"3.68","max_atmosphering_speed":"350","crew":"1","passengers":"1","cargo_capacity":"200","consumables":"none","vehicle_class":"repulsorcraft","pilots":["https://swapi.dev/api/people/11/"],"films":["https://swapi.dev/api/films/5/"],"created":"2014-12-20T16:24:16.026000Z","edited":"2014-12-20T21:30:21.714000Z","url":"https://swapi.dev/api/vehicles/44/"},{"name":"Koro-2 Exodrive airspeeder","model":"Koro-2 Exodrive airspeeder","manufacturer":"Desler Gizh Outworld Mobility Corporation","cost_in_credits":"unknown","length":"6.6","max_atmosphering_speed":"800","crew":"1","passengers":"1","cargo_capacity":"80","consumables":"unknown","vehicle_class":"airspeeder","pilots":["https://swapi.dev/api/people/70/"],"films":["https://swapi.dev/api/films/5/"],"created":"2014-12-20T17:17:33.526000Z","edited":"2014-12-20T21:30:21.716000Z","url":"https://swapi.dev/api/vehicles/45/"},{"name":"XJ-6 airspeeder","model":"XJ-6 airspeeder","manufacturer":"Narglatch AirTech prefabricated kit","cost_in_credits":"unknown","length":"6.23","max_atmosphering_speed":"720","crew":"1","passengers":"1","cargo_capacity":"unknown","consumables":"unknown","vehicle_class":"airspeeder","pilots":["https://swapi.dev/api/people/11/"],"films":["https://swapi.dev/api/films/5/"],"created":"2014-12-20T17:19:19.991000Z","edited":"2014-12-20T21:30:21.719000Z","url":"https://swapi.dev/api/vehicles/46/"},{"name":"LAAT/i","model":"Low Altitude Assault Transport/infrantry","manufacturer":"Rothana Heavy Engineering","cost_in_credits":"unknown","length":"17.4","max_atmosphering_speed":"620","crew":"6","passengers":"30","cargo_capacity":"170","consumables":"unknown","vehicle_class":"gunship","pilots":[],"films":["https://swapi.dev/api/films/5/","https://swapi.dev/api/films/6/"],"created":"2014-12-20T18:01:21.014000Z","edited":"2014-12-20T21:30:21.723000Z","url":"https://swapi.dev/api/vehicles/50/"},{"name":"LAAT/c","model":"Low Altitude Assault Transport/carrier","manufacturer":"Rothana Heavy Engineering","cost_in_credits":"unknown","length":"28.82","max_atmosphering_speed":"620","crew":"1","passengers":"0","cargo_capacity":"40000","consumables":"unknown","vehicle_class":"gunship","pilots":[],"films":["https://swapi.dev/api/films/5/"],"created":"2014-12-20T18:02:46.802000Z","edited":"2014-12-20T21:30:21.725000Z","url":"https://swapi.dev/api/vehicles/51/"},{"name":"AT-TE","model":"All Terrain Tactical Enforcer","manufacturer":"Rothana Heavy Engineering, Kuat Drive Yards","cost_in_credits":"unknown","length":"13.2","max_atmosphering_speed":"60","crew":"6","passengers":"36","cargo_capacity":"10000","consumables":"21 days","vehicle_class":"walker","pilots":[],"films":["https://swapi.dev/api/films/5/","https://swapi.dev/api/films/6/"],"created":"2014-12-20T18:10:07.560000Z","edited":"2014-12-20T21:30:21.728000Z","url":"https://swapi.dev/api/vehicles/53/"},{"name":"SPHA","model":"Self-Propelled Heavy Artillery","manufacturer":"Rothana Heavy Engineering","cost_in_credits":"unknown","length":"140","max_atmosphering_speed":"35","crew":"25","passengers":"30","cargo_capacity":"500","consumables":"7 days","vehicle_class":"walker","pilots":[],"films":["https://swapi.dev/api/films/5/"],"created":"2014-12-20T18:12:32.315000Z","edited":"2014-12-20T21:30:21.731000Z","url":"https://swapi.dev/api/vehicles/54/"},{"name":"Flitknot speeder","model":"Flitknot speeder","manufacturer":"Huppla Pasa Tisc Shipwrights Collective","cost_in_credits":"8000","length":"2","max_atmosphering_speed":"634","crew":"1","passengers":"0","cargo_capacity":"unknown","consumables":"unknown","vehicle_class":"speeder","pilots":["https://swapi.dev/api/people/67/"],"films":["https://swapi.dev/api/films/5/"],"created":"2014-12-20T18:15:20.312000Z","edited":"2014-12-20T21:30:21.735000Z","url":"https://swapi.dev/api/vehicles/55/"},{"name":"Neimoidian shuttle","model":"Sheathipede-class transport shuttle","manufacturer":"Haor Chall Engineering","cost_in_credits":"unknown","length":"20","max_atmosphering_speed":"880","crew":"2","passengers":"6","cargo_capacity":"1000","consumables":"7 days","vehicle_class":"transport","pilots":[],"films":["https://swapi.dev/api/films/5/","https://swapi.dev/api/films/6/"],"created":"2014-12-20T18:25:44.912000Z","edited":"2014-12-20T21:30:21.739000Z","url":"https://swapi.dev/api/vehicles/56/"},{"name":"Geonosian starfighter","model":"Nantex-class territorial defense","manufacturer":"Huppla Pasa Tisc Shipwrights Collective","cost_in_credits":"unknown","length":"9.8","max_atmosphering_speed":"20000","crew":"1","passengers":"0","cargo_capacity":"unknown","consumables":"unknown","vehicle_class":"starfighter","pilots":[],"films":["https://swapi.dev/api/films/5/"],"created":"2014-12-20T18:34:12.541000Z","edited":"2014-12-20T21:30:21.742000Z","url":"https://swapi.dev/api/vehicles/57/"}]}
