{"count":60,"next":"https://swapi.dev/api/planets/?page=4&format=json","previous":"https://swapi.dev/api/planets/?page=2&format=json","results":[{"name":"Eriadu","rotation_period":"24","orbital_period":"360","diameter":"13490","climate":"polluted","gravity":"1 standard","terrain":"cityscape","surface_water":"unknown","population":"22000000000","residents":["https://swapi.dev/api/people/12/"],"films":[],"created":"2014-12-10T16:26:54.384000Z","edited":"2014-12-20T20:58:18.454000Z","url":"https://swapi.dev/api/planets/21/"},{"name":"Corellia","rotation_period":"25","orbital_period":"329","diameter":"11000","climate":"temperate","gravity":"1 standard","terrain":"plains, urban, hills, forests","surface_water":"70","population":"3000000000","residents":["https://swapi.dev/api/people/14/","https://swapi.dev/api/people/18/"],"films":[],"created":"2014-12-10T16:49:12.453000Z","edited":"2014-12-20T20:58:18.456000Z","url":"https://swapi.dev/api/planets/22/"},{"name":"Rodia","rotation_period":"29","orbital_period":"305","diameter":"7549","climate":"hot","gravity":"1 standard","terrain":"jungles, oceans, urban, swamps","surface_water":"60","population":"1300000000","residents":["https://swapi.dev/api/people/15/"],"films":[],"created":"2014-12-10T17:03:28.110000Z","edited":"2014-12-20T20:58:18.458000Z","url":"https://swapi.dev/api/planets/23/"},{"name":"Nal Hutta","rotation_period":"87","orbital_period":"413","diameter":"12150","climate":"temperate","gravity":"1 standard","terrain":"urban, oceans, swamps, bogs","surface_water":"unknown","population":"7000000000","residents":["https://swapi.dev/api/people/16/"],"films":[],"created":"2014-12-10T17:11:29.452000Z","edited":"2014-12-20T20:58:18.460000Z","url":"https://swapi.dev/api/planets/24/"},{"name":"Dantooine","rotation_period":"25","orbital_period":"378","diameter":"9830","climate":"temperate","gravity":"1 standard","terrain":"oceans, savannas, mountains, grasslands","surface_water":"unknown","population":"1000","residents":[],"films":[],"created":"2014-12-10T17:23:29.896000Z","edited":"2014-12-20T20:58:18.461000Z","url":"https://swapi.dev/api/planets/25/"},{"name":"Bestine IV","rotation_period":"26","orbital_period":"680","diameter":"6400","climate":"temperate","gravity":"unknown","terrain":"rocky islands, oceans","surface_water":"98","population":"62000000","residents":["https://swapi.dev/api/people/19/"],"films":[],"created":"2014-12-12T11:16:55.078000Z","edited":"2014-12-20T20:58:18.463000Z","url":"https://swapi.dev/api/planets/26/"},{"name":"Ord Mantell","rotation_period":"26","orbital_period":"334","diameter":"14050","climate":"temperate","gravity":"1 standard","terrain":"plains, seas, mesas","surface_water":"10","population":"4000000000","residents":[],"films":["https://swapi.dev/api/films/2/"],"created":"2014-12-15T12:23:41.661000Z","edited":"2014-12-20T20:58:18.464000Z","url":"https://swapi.dev/api/planets/27/"},{"name":"unknown","rotation_period":"0","orbital_period":"0","diameter":"0","climate":"unknown","gravity":"unknown","terrain":"unknown","surface_water":"unknown","population":"unknown","residents":["https://swapi.dev/api/people/20/","https://swapi.dev/api/people/23/","https://swapi.dev/api/people/29/","https://swapi.dev/api/people/32/","https://swapi.dev/api/people/75/"],"films":[],"created":"2014-12-15T12:25:59.569000Z","edited":"2014-12-20T20:58:18.466000Z","url":"https://swapi.dev/api/planets/28/"},{"name":"Trandosha","rotation_period":"25","orbital_period":"371","diameter":"0","climate":"arid","gravity":"0.62 standard","terrain":"mountains, seas, grasslands, deserts","surface_water":"unknown","population":"42000000","residents":["https://swapi.dev/api/people/24/"],"films":[],"created":"2014-12-15T12:53:47.695000Z","edited":"2014-12-20T20:58:18.468000Z","url":"https://swapi.dev/api/planets/29/"},{"name":"Socorro","rotation_period":"20","orbital_period":"326","diameter":"0","climate":"arid","gravity":"1 standard","terrain":"deserts, mountains","surface_water":"unknown","population":"300000000","residents":["https://swapi.dev/api/people/25/"],"films":[],"created":"2014-12-15T12:56:31.121000Z","edited":"2014-12-20T20:58:18.469000Z","url":"https://swapi.dev/api/planets/30/"}]}
