{"count":60,"next":"https://swapi.dev/api/planets/?page=5&format=json","previous":"https://swapi.dev/api/planets/?page=3&format=json","results":[{"name":"Mon Cala","rotation_period":"21","orbital_period":"398","diameter":"11030","climate":"temperate","gravity":"1","terrain":"oceans, reefs, islands","surface_water":"100","population":"27000000000","residents":["https://swapi.dev/api/people/27/"],"films":[],"created":"2014-12-18T11:07:01.792000Z","edited":"2014-12-20T20:58:18.471000Z","url":"https://swapi.dev/api/planets/31/"},{"name":"Chandrila","rotation_period":"20","orbital_period":"368","diameter":"13500","climate":"temperate","gravity":"1","terrain":"plains, forests","surface_water":"40","population":"1200000000","residents":["https://swapi.dev/api/people/28/"],"films":[],"created":"2014-12-18T11:11:51.872000Z","edited":"2014-12-20T20:58:18.472000Z","url":"https://swapi.dev/api/planets/32/"},{"name":"Sullust","rotation_period":"20","orbital_period":"263","diameter":"12780","climate":"superheated","gravity":"1","terrain":"mountains, volcanoes, rocky deserts","surface_water":"5","population":"18500000000","residents":["https://swapi.dev/api/people/31/"],"films":[],"created":"2014-12-18T11:25:40.243000Z","edited":"2014-12-20T20:58:18.474000Z","url":"https://swapi.dev/api/planets/33/"},{"name":"Toydaria","rotation_period":"21","orbital_period":"184","diameter":"7900","climate":"temperate","gravity":"1","terrain":"swamps, lakes","surface_water":"unknown","population":"11000000","residents":["https://swapi.dev/api/people/40/"],"films":[],"created":"2014-12-19T17:47:54.403000Z","edited":"2014-12-20T20:58:18.476000Z","url":"https://swapi.dev/api/planets/34/"},{"name":"Malastare","rotation_period":"26","orbital_period":"201","diameter":"18880","climate":"arid, temperate, tropical","gravity":"1.56","terrain":"swamps, deserts, jungles, mountains","surface_water":"unknown","population":"2000000000","residents":["https://swapi.dev/api/people/41/"],"films":[],"created":"2014-12-19T17:52:13.106000Z","edited":"2014-12-20T20:58:18.478000Z","url":"https://swapi.dev/api/planets/35/"},{"name":"Dathomir","rotation_period":"24","orbital_period":"491","diameter":"10480","climate":"temperate","gravity":"0.9","terrain":"forests, deserts, savannas","surface_water":"unknown","population":"5200","residents":["https://swapi.dev/api/people/44/"],"films":[],"created":"2014-12-19T18:00:40.142000Z","edited":"2014-12-20T20:58:18.480000Z","url":"https://swapi.dev/api/planets/36/"},{"name":"Ryloth","rotation_period":"30","orbital_period":"305","diameter":"10600","climate":"temperate, arid, subartic","gravity":"1","terrain":"mountains, valleys, deserts, tundra","surface_water":"5","population":"1500000000","residents":["https://swapi.dev/api/people/45/","https://swapi.dev/api/people/46/"],"films":[],"created":"2014-12-20T09:46:25.740000Z","edited":"2014-12-20T20:58:18.481000Z","url":"https://swapi.dev/api/planets/37/"},{"name":"Aleen Minor","rotation_period":"unknown","orbital_period":"unknown","diameter":"unknown","climate":"unknown","gravity":"unknown","terrain":"unknown","surface_water":"unknown","population":"unknown","residents":["https://swapi.dev/api/people/47/"],"films":[],"created":"2014-12-20T09:52:23.452000Z","edited":"2014-12-20T20:58:18.483000Z","url":"https://swapi.dev/api/planets/38/"},{"name":"Vulpter","rotation_period":"22","orbital_period":"391","diameter":"14900","climate":"temperate, artic","gravity":"1","terrain":"urban, barren","surface_water":"unknown","population":"421000000","residents":["https://swapi.dev/api/people/48/"],"films":[],"created":"2014-12-20T09:56:58.874000Z","edited":"2014-12-20T20:58:18.485000Z","url":"https://swapi.dev/api/planets/39/"},{"name":"Troiken","rotation_period":"unknown","orbital_period":"unknown","diameter":"unknown","climate":"unknown","gravity":"unknown","terrain":"desert, tundra, rainforests, mountains","surface_water":"unknown","population":"unknown","residents":["https://swapi.dev/api/people/49/"],"films":[],"created":"2014-12-20T10:01:37.395000Z","edited":"2014-12-20T20:58:18.487000Z","url":"https://swapi.dev/api/planets/40/"}]}
