{"count":60,"next":"https://swapi.dev/api/planets/?page=6&format=json","previous":"https://swapi.dev/api/planets/?page=4&format=json","results":[{"name":"Tund","rotation_period":"48","orbital_period":"1770","diameter":"12190","climate":"unknown","gravity":"unknown","terrain":"barren, ash","surface_water":"unknown","population":"0","residents":["https://swapi.dev/api/people/50/"],"films":[],"created":"2014-12-20T10:07:29.578000Z","edited":"2014-12-20T20:58:18.489000Z","url":"https://swapi.dev/api/planets/41/"},{"name":"Haruun Kal","rotation_period":"25","orbital_period":"383","diameter":"10120","climate":"temperate","gravity":"0.98","terrain":"toxic cloudsea, plateaus, volcanoes","surface_water":"unknown","population":"705300","residents":["https://swapi.dev/api/people/51/"],"films":[],"created":"2014-12-20T10:12:28.980000Z","edited":"2014-12-20T20:58:18.491000Z","url":"https://swapi.dev/api/planets/42/"},{"name":"Cerea","rotation_period":"27","orbital_period":"386","diameter":"unknown","climate":"temperate","gravity":"1","terrain":"verdant","surface_water":"20","population":"450000000","residents":["https://swapi.dev/api/people/52/"],"films":[],"created":"2014-12-20T10:14:48.178000Z","edited":"2014-12-20T20:58:18.493000Z","url":"https://swapi.dev/api/planets/43/"},{"name":"Glee Anselm","rotation_period":"33","orbital_period":"206","diameter":"15600","climate":"tropical, temperate","gravity":"1","terrain":"lakes, islands, swamps, seas","surface_water":"80","population":"500000000","residents":["https://swapi.dev/api/people/53/"],"films":[],"created":"2014-12-20T10:18:26.110000Z","edited":"2014-12-20T20:58:18.495000Z","url":"https://swapi.dev/api/planets/44/"},{"name":"Iridonia","rotation_period":"29","orbital_period":"413","diameter":"unknown","climate":"unknown","gravity":"unknown","terrain":"rocky canyons, acid pools","surface_water":"unknown","population":"unknown","residents":["https://swapi.dev/api/people/54/"],"films":[],"created":"2014-12-20T10:26:05.788000Z","edited":"2014-12-20T20:58:18.497000Z","url":"https://swapi.dev/api/planets/45/"},{"name":"Tholoth","rotation_period":"unknown","orbital_period":"unknown","diameter":"unknown","climate":"unknown","gravity":"unknown","terrain":"unknown","surface_water":"unknown","population":"unknown","residents":[],"films":[],"created":"2014-12-20T10:28:31.117000Z","edited":"2014-12-20T20:58:18.498000Z","url":"https://swapi.dev/api/planets/46/"},{"name":"Iktotch","rotation_period":"22","orbital_period":"481","diameter":"unknown","climate":"arid, rocky, windy","gravity":"1","terrain":"rocky","surface_water":"unknown","population":"unknown","residents":["https://swapi.dev/api/people/56/"],"films":[],"created":"2014-12-20T10:31:32.413000Z","edited":"2014-12-20T20:58:18.500000Z","url":"https://swapi.dev/api/planets/47/"},{"name":"Quermia","rotation_period":"unknown","orbital_period":"unknown","diameter":"unknown","climate":"unknown","gravity":"unknown","terrain":"unknown","surface_water":"unknown","population":"unknown","residents":["https://swapi.dev/api/people/57/"],"films":[],"created":"2014-12-20T10:34:08.249000Z","edited":"2014-12-20T20:58:18.502000Z","url":"https://swapi.dev/api/planets/48/"},{"name":"Dorin","rotation_period":"22","orbital_period":"409","diameter":"13400","climate":"temperate","gravity":"1","terrain":"unknown","surface_water":"unknown","population":"unknown","residents":["https://swapi.dev/api/people/58/"],"films":[],"created":"2014-12-20T10:48:36.141000Z","edited":"2014-12-20T20:58:18.504000Z","url":"https://swapi.dev/api/planets/49/"},{"name":"Champala","rotation_period":"27","orbital_period":"318","diameter":"unknown","climate":"temperate","gravity":"1","terrain":"oceans, rainforests, plateaus","surface_water":"unknown","population":"3500000000","residents":["https://swapi.dev/api/people/59/"],"films":[],"created":"2014-12-20T10:52:51.524000Z","edited":"2014-12-20T20:58:18.506000Z","url":"https://swapi.dev/api/planets/50/"}]}
